{
  "items": [
    {
      "NewsArticleID": 34,
      "NewsTitle": "Vietnam economy growth",
      "CreatedDate": "2025-10-31T08:34:45.667",
      "Headline": null,
      "NewsStatus": true,
      "NewsContent": null,
      "NewsSource": null,
      "CategoryId": null,
      "CategoryName": "Science",
      "ImageFile": null,
      "TagIds": []
    },
    {
      "NewsArticleID": 33,
      "NewsTitle": "Vietnam economy growth",
      "CreatedDate": "2025-10-31T08:31:23.317",
      "Headline": null,
      "NewsStatus": true,
      "NewsContent": null,
      "NewsSource": null,
      "CategoryId": null,
      "CategoryName": "IT",
      "ImageFile": null,
      "TagIds": []
    },
    {
      "NewsArticleID": 32,
      "NewsTitle": "Vietnam economy growth",
      "CreatedDate": "2025-10-28T08:04:47.223",
      "Headline": null,
      "NewsStatus": true,
      "NewsContent": null,
      "NewsSource": null,
      "CategoryId": null,
      "CategoryName": "IT",
      "ImageFile": null,
      "TagIds": []
    },
    {
      "NewsArticleID": 31,
      "NewsTitle": "V\u1EA5n \u0111\u1EC1 r\u00FAt bi\u1EC3n s\u1ED1",
      "CreatedDate": "2025-10-28T08:04:24.787",
      "Headline": null,
      "NewsStatus": true,
      "NewsContent": null,
      "NewsSource": null,
      "CategoryId": null,
      "CategoryName": "Education 7",
      "ImageFile": null,
      "TagIds": []
    },
    {
      "NewsArticleID": 30,
      "NewsTitle": "FPT realsed new computer",
      "CreatedDate": "2025-10-28T08:02:06.417",
      "Headline": null,
      "NewsStatus": true,
      "NewsContent": null,
      "NewsSource": null,
      "CategoryId": null,
      "CategoryName": "IT",
      "ImageFile": null,
      "TagIds": []
    },
    {
      "NewsArticleID": 29,
      "NewsTitle": "FPT realsed new computer",
      "CreatedDate": "2025-10-28T08:02:06.083",
      "Headline": null,
      "NewsStatus": true,
      "NewsContent": null,
      "NewsSource": null,
      "CategoryId": null,
      "CategoryName": "IT",
      "ImageFile": null,
      "TagIds": []
    },
    {
      "NewsArticleID": 28,
      "NewsTitle": "FPT realsed new smartphone 11111111",
      "CreatedDate": "2025-10-28T08:00:19.077",
      "Headline": null,
      "NewsStatus": true,
      "NewsContent": null,
      "NewsSource": null,
      "CategoryId": null,
      "CategoryName": "IT",
      "ImageFile": null,
      "TagIds": []
    },
    {
      "NewsArticleID": 27,
      "NewsTitle": "FPT realsed new smartphone 1111",
      "CreatedDate": "2025-10-28T00:51:55.833",
      "Headline": null,
      "NewsStatus": true,
      "NewsContent": null,
      "NewsSource": null,
      "CategoryId": null,
      "CategoryName": "Game",
      "ImageFile": null,
      "TagIds": []
    },
    {
      "NewsArticleID": 26,
      "NewsTitle": "Vietnam economy growth",
      "CreatedDate": "2025-10-28T00:45:41.053",
      "Headline": null,
      "NewsStatus": true,
      "NewsContent": null,
      "NewsSource": null,
      "CategoryId": null,
      "CategoryName": "Game",
      "ImageFile": null,
      "TagIds": []
    },
    {
      "NewsArticleID": 25,
      "NewsTitle": "T1 win the worlds 2024",
      "CreatedDate": "2025-10-28T00:40:35.893",
      "Headline": null,
      "NewsStatus": true,
      "NewsContent": null,
      "NewsSource": null,
      "CategoryId": null,
      "CategoryName": "IT",
      "ImageFile": null,
      "TagIds": []
    }
  ],
  "currentPage": 1,
  "totalPages": 3,
  "pageSize": 10,
  "totalCount": 27,
  "hasPreviousPage": false,
  "hasNextPage": true
}